{
	"info": {
		"_postman_id": "07f9ba72-7c46-4293-8e86-605db3d67907",
		"name": "Restful_API",
		"schema": "https://schema.getpostman.com/json/collection/v2.1.0/collection.json",
		"_exporter_id": "34876467"
	},
	"item": [
		{
			"name": "Restful_Post_API",
			"event": [
				{
					"listen": "test",
					"script": {
						"exec": [
							"pm.test(\"Status code is 200\", function () {\r",
							"    pm.response.to.have.status(200);\r",
							"});\r",
							"\r",
							"\r",
							"var responseBody = pm.response.json();\r",
							"//var auxData = responseBody.data;\r",
							"\r",
							"\r",
							"var res_id = responseBody.id;\r",
							"var res_name = responseBody.name;\r",
							"var res_createdAt = responseBody.createdAt.slice(0,11);\r",
							"var res_data_year = responseBody.year;\r",
							"var res_data_price = responseBody.price;\r",
							"var res_data_CPUmodel = responseBody[\"CPU model\"];\r",
							"var res_data_Harddisksize = responseBody[\"Hard disk size\"];\r",
							"\r",
							"//var res_data_year = auxData.year;\r",
							"//var res_data_price = auxData.price;\r",
							"//var res_data_CPUmodel = auxData[\"CPU model\"];\r",
							"//var res_data_Harddisksize = auxData[\"Hard disk size\"];\r",
							"\r",
							"var requestBody = pm.request.body.raw;\r",
							"requestBody=JSON.parse(requestBody);\r",
							"var req_id = requestBody.id;\r",
							"var req_name = requestBody.name;\r",
							"var expected_date = new Date().toISOString().slice(0,11);\r",
							"var req_data_year = requestBody.year;\r",
							"var req_data_price = requestBody.price;\r",
							"var req_data_CPUmodel = requestBody[\"CPU model\"];\r",
							"var req_data_Harddisksize = requestBody[\"Hard disk size\"];\r",
							"\r",
							"pm.test(\"validate response body param : id\", function() {\r",
							"    pm.expect(res_id).to.not.null;\r",
							"})\r",
							"\r",
							"pm.test(\"validate response body param : name\", function() {\r",
							"    pm.expect(res_name).to.eql(req_name);\r",
							"})\r",
							"\r",
							"pm.test(\"validate response body param : createdAt\", function() {\r",
							"    pm.expect(res_createdAt).to.eql(expected_date);\r",
							"})\r",
							"\r",
							"pm.test(\"validate response body param : year\", function() {\r",
							"    pm.expect(res_data_year).to.eql(req_data_year);\r",
							"})\r",
							"\r",
							"pm.test(\"validate response body param : price\", function() {\r",
							"    pm.expect(res_data_price).to.eql(req_data_price);\r",
							"})\r",
							"\r",
							"pm.test(\"validate response body param : CPUmodel\", function() {\r",
							"    pm.expect(res_data_CPUmodel).to.eql(req_data_CPUmodel);\r",
							"})\r",
							"\r",
							"pm.test(\"validate response body param : Harddisksize\", function() {\r",
							"    pm.expect(res_data_Harddisksize).to.eql(req_data_Harddisksize);\r",
							"})\r",
							"\r",
							"\r",
							""
						],
						"type": "text/javascript",
						"packages": {}
					}
				}
			],
			"request": {
				"method": "POST",
				"header": [],
				"body": {
					"mode": "raw",
					"raw": "{\r\n   \"name\": \"Apple MacBook Pro 16\",\r\n   \"data\": {\r\n      \"year\": 2019,\r\n      \"price\": 1849.99,\r\n      \"CPU model\": \"Intel Core i9\",\r\n      \"Hard disk size\": \"1 TB\"\r\n   }\r\n}",
					"options": {
						"raw": {
							"language": "json"
						}
					}
				},
				"url": {
					"raw": "{{Post_RestFull_API_URL}}",
					"host": [
						"{{Post_RestFull_API_URL}}"
					]
				}
			},
			"response": []
		},
		{
			"name": "Restful_Get_API_ID_3_5_10",
			"event": [
				{
					"listen": "test",
					"script": {
						"exec": [
							"pm.test(\"Status code is 200\", function () {\r",
							"    pm.response.to.have.status(200);\r",
							"});\r",
							"\r",
							"var responseBody = pm.response.json()\r",
							"var dataArray = responseBody;\r",
							"var count = Object.keys(dataArray); \r",
							"var count = count.length;\r",
							"\r",
							"//set data\r",
							"const exp_data_id_array = [3,5,10];\r",
							"const exp_data_name = [\r",
							"    \"Apple iPhone 12 Pro Max\",\r",
							"    \"Samsung Galaxy Z Fold2\",\r",
							"    \"Apple iPad Mini 5th Gen\"\r",
							"]\r",
							"\r",
							"for (i = 0; i < count; i++)\r",
							"{\r",
							"    var res_id = parseInt(dataArray[i].id);  // Convert the string id to an integer\r",
							"    var exp_id = exp_data_id_array[i];\r",
							"\r",
							"    var res_name = dataArray[i].name;\r",
							"    var exp_name = exp_data_name[i];\r",
							"    \r",
							"    pm.test(\"Validated the response Body param: id at index \" + i, function(){    \r",
							"        pm.expect(res_id).to.eql(exp_id);\r",
							"    })\r",
							"\r",
							"    pm.test(\"Validated the respone Body param: name at index \" + i, function(){ \r",
							"        pm.expect(res_name).to.eql(exp_name);\r",
							"    })\r",
							"}"
						],
						"type": "text/javascript",
						"packages": {}
					}
				}
			],
			"request": {
				"method": "GET",
				"header": [],
				"url": {
					"raw": "{{Get_RestFull_API_URL}}",
					"host": [
						"{{Get_RestFull_API_URL}}"
					]
				}
			},
			"response": []
		},
		{
			"name": "Restful_Get_API_ID_1_3",
			"event": [
				{
					"listen": "test",
					"script": {
						"exec": [
							"pm.test(\"Status code is 200\", function () {\r",
							"    pm.response.to.have.status(200);\r",
							"});\r",
							"\r",
							"var responseBody = pm.response.json()\r",
							"var dataArray = responseBody;\r",
							"var count = Object.keys(dataArray); \r",
							"var count = count.length;\r",
							"\r",
							"var res_color = responseBody.color;\r",
							"var res_capacity = responseBody.capacity\r",
							"\r",
							"\r",
							"//set data\r",
							"const exp_data_id_array = [1,3];\r",
							"const exp_data_name = [\r",
							"    \"Google Pixel 6 Pro\",\r",
							"    \"Apple iPhone 12 Pro Max\"\r",
							"];\r",
							"const exp_data_color = [\r",
							"    \"Cloudy White\",\r",
							"    \"Cloudy White\"\r",
							"];\r",
							"const exp_data_capacity = [\r",
							"    \"128 GB\"\r",
							"];\r",
							"const exp_data_capacity_GB = [\r",
							"    \"512\"\r",
							"];\r",
							"\r",
							"\r",
							"for (i = 0; i < count; i++)\r",
							"{\r",
							"    var res_id = parseInt(dataArray[i].id);  // Convert the string id to an integer\r",
							"    var exp_id = exp_data_id_array[i];\r",
							"\r",
							"    var res_name = dataArray[i].name;\r",
							"    var exp_name = exp_data_name[i];\r",
							"    \r",
							"    var res_color =  dataArray[i].data.color;  //nested value of data\r",
							"    var exp_color = exp_data_color[i];\r",
							"\r",
							"    var res_capacity =  dataArray[i].data.capacity;  //nested value of data\r",
							"    var exp_capacity = exp_data_capacity[i];\r",
							"\r",
							"\r",
							"    pm.test(\"Validated the response Body param: id at index \" + i, function(){    \r",
							"        pm.expect(res_id).to.eql(exp_id);\r",
							"    })\r",
							"\r",
							"    pm.test(\"Validated the respone Body param: name at index \" + i, function(){ \r",
							"        pm.expect(res_name).to.eql(exp_name);\r",
							"    })\r",
							"\r",
							"    pm.test(\"Validated the respone Body param: color at index \" + i, function(){ \r",
							"        pm.expect(res_color).to.eql(exp_color);\r",
							"    })\r",
							"\r",
							"    pm.test(\"Validated the respone Body param: capacity at index \" + i, function(){ \r",
							"        pm.expect(res_capacity).to.eql(exp_capacity);\r",
							"    })\r",
							"\r",
							"\r",
							"}"
						],
						"type": "text/javascript",
						"packages": {}
					}
				}
			],
			"request": {
				"method": "GET",
				"header": [],
				"url": {
					"raw": "https://api.restful-api.dev/objects?id=1&id=3",
					"protocol": "https",
					"host": [
						"api",
						"restful-api",
						"dev"
					],
					"path": [
						"objects"
					],
					"query": [
						{
							"key": "id",
							"value": "1"
						},
						{
							"key": "id",
							"value": "3"
						}
					]
				}
			},
			"response": []
		},
		{
			"name": "Restful_Get_API_ID_4_5",
			"event": [
				{
					"listen": "test",
					"script": {
						"exec": [
							"pm.test(\"Status code is 200\", function () {\r",
							"    pm.response.to.have.status(200);\r",
							"});\r",
							"\r",
							"var responseBody = pm.response.json()\r",
							"var dataArray = responseBody;\r",
							"var count = Object.keys(dataArray); \r",
							"var count = count.length;\r",
							"\r",
							"\r",
							"//set data\r",
							"const exp_data_id_array = [4,5]\r",
							"const exp_data_name = [\r",
							"    \"Apple iPhone 11, 64GB\",\r",
							"    \"Samsung Galaxy Z Fold2\"\r",
							"];\r",
							"const exp_data_price_array = [\r",
							"    389.99,\r",
							"    689.99\r",
							"];\r",
							"const exp_data_color = [\r",
							"    \"Purple\",\r",
							"    \"Brown\"\r",
							"];\r",
							"\r",
							"\r",
							"\r",
							"\r",
							"for (i = 0; i < count; i++)\r",
							"{\r",
							"    var res_id = parseInt(dataArray[i].id);  // Convert the string id to an integer\r",
							"    var exp_id = exp_data_id_array[i];\r",
							"\r",
							"    var res_name = dataArray[i].name;\r",
							"    var exp_name = exp_data_name[i];\r",
							"    \r",
							"    var res_price = (dataArray[i].data.price);  //nested value of data\r",
							"    var exp_price = (exp_data_price_array[i]);\r",
							"\r",
							"    var res_color =  dataArray[i].data.color;  //nested value of data\r",
							"    var exp_color = exp_data_color[i];\r",
							"\r",
							"\r",
							"\r",
							"    pm.test(\"Validated the response Body param: id at index \" + i, function(){    \r",
							"        pm.expect(res_id).to.eql(exp_id);\r",
							"    })\r",
							"\r",
							"    pm.test(\"Validated the respone Body param: name at index \" + i, function(){ \r",
							"        pm.expect(res_name).to.eql(exp_name);\r",
							"    })\r",
							"\r",
							"    pm.test(\"Validated the respone Body param: price at index \" + i, function(){ \r",
							"        pm.expect(res_price).to.eql(exp_price);\r",
							"    })\r",
							"\r",
							"    pm.test(\"Validated the respone Body param: color at index \" + i, function(){ \r",
							"        pm.expect(res_color).to.eql(exp_color);\r",
							"    })\r",
							"\r",
							"\r",
							"}"
						],
						"type": "text/javascript",
						"packages": {}
					}
				}
			],
			"request": {
				"method": "GET",
				"header": [],
				"url": {
					"raw": "https://api.restful-api.dev/objects?id=4&id=5",
					"protocol": "https",
					"host": [
						"api",
						"restful-api",
						"dev"
					],
					"path": [
						"objects"
					],
					"query": [
						{
							"key": "id",
							"value": "4"
						},
						{
							"key": "id",
							"value": "5"
						}
					]
				}
			},
			"response": []
		},
		{
			"name": "Restful_Put_API",
			"event": [
				{
					"listen": "test",
					"script": {
						"exec": [
							"pm.test(\"Status code is 200\", function () {\r",
							"    pm.response.to.have.status(200);\r",
							"});\r",
							"\r",
							"\r",
							"var responseBody = pm.response.json();\r",
							"//var auxData = responseBody.data;\r",
							"\r",
							"\r",
							"var res_id = responseBody.id;\r",
							"var res_name = responseBody.name;\r",
							"var res_updatedAt = responseBody.updatedAt.slice(0,11);\r",
							"var res_data_year = responseBody.year;\r",
							"var res_data_price = responseBody.price;\r",
							"var res_data_CPUmodel = responseBody[\"CPU model\"];\r",
							"var res_data_Harddisksize = responseBody[\"Hard disk size\"];\r",
							"\r",
							"//var res_data_year = auxData.year;\r",
							"//var res_data_price = auxData.price;\r",
							"//var res_data_CPUmodel = auxData[\"CPU model\"];\r",
							"//var res_data_Harddisksize = auxData[\"Hard disk size\"];\r",
							"\r",
							"var requestBody = pm.request.body.raw;\r",
							"requestBody=JSON.parse(requestBody);\r",
							"var req_id = requestBody.id;\r",
							"var req_name = requestBody.name;\r",
							"var expected_date = new Date().toISOString().slice(0,11);\r",
							"var req_data_year = requestBody.year;\r",
							"var req_data_price = requestBody.price;\r",
							"var req_data_CPUmodel = requestBody[\"CPU model\"];\r",
							"var req_data_Harddisksize = requestBody[\"Hard disk size\"];\r",
							"\r",
							"pm.test(\"validate response body param : id\", function() {\r",
							"    pm.expect(res_id).to.not.null;\r",
							"})\r",
							"\r",
							"pm.test(\"validate response body param : name\", function() {\r",
							"    pm.expect(res_name).to.eql(req_name);\r",
							"})\r",
							"\r",
							"pm.test(\"validate response body param : createdAt\", function() {\r",
							"    pm.expect(res_updatedAt).to.eql(expected_date);\r",
							"})\r",
							"\r",
							"pm.test(\"validate response body param : year\", function() {\r",
							"    pm.expect(res_data_year).to.eql(req_data_year);\r",
							"})\r",
							"\r",
							"pm.test(\"validate response body param : price\", function() {\r",
							"    pm.expect(res_data_price).to.eql(req_data_price);\r",
							"})\r",
							"\r",
							"pm.test(\"validate response body param : CPUmodel\", function() {\r",
							"    pm.expect(res_data_CPUmodel).to.eql(req_data_CPUmodel);\r",
							"})\r",
							"\r",
							"pm.test(\"validate response body param : Harddisksize\", function() {\r",
							"    pm.expect(res_data_Harddisksize).to.eql(req_data_Harddisksize);\r",
							"})\r",
							"\r",
							"\r",
							""
						],
						"type": "text/javascript",
						"packages": {}
					}
				}
			],
			"request": {
				"method": "PUT",
				"header": [],
				"body": {
					"mode": "raw",
					"raw": "{\r\n   \"name\": \"Apple MacBook Pro 16\",\r\n   \"data\": {\r\n      \"year\": 2019,\r\n      \"price\": 2049.99,\r\n      \"CPU model\": \"Intel Core i9\",\r\n      \"Hard disk size\": \"1 TB\",\r\n      \"color\": \"silver\"\r\n   }\r\n}",
					"options": {
						"raw": {
							"language": "json"
						}
					}
				},
				"url": {
					"raw": "{{Put_RestFull_API_URL}}",
					"host": [
						"{{Put_RestFull_API_URL}}"
					]
				}
			},
			"response": []
		},
		{
			"name": "Restful_Patch_API",
			"event": [
				{
					"listen": "test",
					"script": {
						"exec": [
							"pm.test(\"Status code is 200\", function () {\r",
							"    pm.response.to.have.status(200);\r",
							"});\r",
							"\r",
							"\r",
							"var responseBody = pm.response.json();\r",
							"//var auxData = responseBody.data;\r",
							"\r",
							"\r",
							"var res_id = responseBody.id;\r",
							"var res_name = responseBody.name;\r",
							"var res_updatedAt = responseBody.updatedAt.slice(0,11);\r",
							"var res_data_year = responseBody.year;\r",
							"var res_data_price = responseBody.price;\r",
							"var res_data_CPUmodel = responseBody[\"CPU model\"];\r",
							"var res_data_Harddisksize = responseBody[\"Hard disk size\"];\r",
							"\r",
							"//var res_data_year = auxData.year;\r",
							"//var res_data_price = auxData.price;\r",
							"//var res_data_CPUmodel = auxData[\"CPU model\"];\r",
							"//var res_data_Harddisksize = auxData[\"Hard disk size\"];\r",
							"\r",
							"var requestBody = pm.request.body.raw;\r",
							"requestBody=JSON.parse(requestBody);\r",
							"var req_id = requestBody.id;\r",
							"var req_name = requestBody.name;\r",
							"var expected_date = new Date().toISOString().slice(0,11);\r",
							"var req_data_year = requestBody.year;\r",
							"var req_data_price = requestBody.price;\r",
							"var req_data_CPUmodel = requestBody[\"CPU model\"];\r",
							"var req_data_Harddisksize = requestBody[\"Hard disk size\"];\r",
							"\r",
							"pm.test(\"validate response body param : id\", function() {\r",
							"    pm.expect(res_id).to.not.null;\r",
							"})\r",
							"\r",
							"pm.test(\"validate response body param : name\", function() {\r",
							"    pm.expect(res_name).to.eql(req_name);\r",
							"})\r",
							"\r",
							"pm.test(\"validate response body param : createdAt\", function() {\r",
							"    pm.expect(res_updatedAt).to.eql(expected_date);\r",
							"})\r",
							"\r",
							"pm.test(\"validate response body param : year\", function() {\r",
							"    pm.expect(res_data_year).to.eql(req_data_year);\r",
							"})\r",
							"\r",
							"pm.test(\"validate response body param : price\", function() {\r",
							"    pm.expect(res_data_price).to.eql(req_data_price);\r",
							"})\r",
							"\r",
							"pm.test(\"validate response body param : CPUmodel\", function() {\r",
							"    pm.expect(res_data_CPUmodel).to.eql(req_data_CPUmodel);\r",
							"})\r",
							"\r",
							"pm.test(\"validate response body param : Harddisksize\", function() {\r",
							"    pm.expect(res_data_Harddisksize).to.eql(req_data_Harddisksize);\r",
							"})\r",
							"\r",
							"\r",
							""
						],
						"type": "text/javascript",
						"packages": {}
					}
				}
			],
			"request": {
				"method": "PATCH",
				"header": [],
				"body": {
					"mode": "raw",
					"raw": "{\r\n   \"name\": \"Apple MacBook Pro 16 (Updated Name)\"\r\n}",
					"options": {
						"raw": {
							"language": "json"
						}
					}
				},
				"url": {
					"raw": "{{Patch_RestFull_API_URL}}",
					"host": [
						"{{Patch_RestFull_API_URL}}"
					]
				}
			},
			"response": []
		},
		{
			"name": "Restful_Delete_API",
			"event": [
				{
					"listen": "test",
					"script": {
						"exec": [
							"pm.test(\"Status code is 200\", function () {\r",
							"    pm.response.to.have.status(200);\r",
							"});"
						],
						"type": "text/javascript",
						"packages": {}
					}
				}
			],
			"request": {
				"method": "DELETE",
				"header": [],
				"url": {
					"raw": "{{Delete_RestFull_API_URL}}",
					"host": [
						"{{Delete_RestFull_API_URL}}"
					]
				}
			},
			"response": []
		}
	]
}